0.2614852488040924
0.16521668434143066
-0.22599942982196808
-0.060918379575014114
-0.008366716094315052
0.008688611909747124
-0.28469470143318176
-0.12889908254146576
0.16731524467468262
-0.29120856523513794
-0.13686825335025787
0.179837167263031
-0.09555798768997192
-0.05782093480229378
0.0773700475692749
0.15782082080841064
0.02066206745803356
-0.05087198317050934
0.28019335865974426
0.07838380336761475
-0.08677113056182861
0.19131137430667877
0.05840957164764404
-0.061098821461200714
0.14425122737884521
0.29352933168411255
-0.3175837993621826
-0.08009699732065201
-0.028701506555080414
0.02449319325387478
-0.2014925330877304
-0.016046268865466118
0.07689940929412842
-0.21103979647159576
-0.008437462151050568
0.11789615452289581
-0.02968703955411911
-0.0759059339761734
0.0733310654759407
0.21963393688201904
-0.15515531599521637
0.016494281589984894
